{
  "project_info": {
    "project_number": "346152528458",
    "firebase_url": "https://kotlinentitas.firebaseio.com",
    "project_id": "kotlinentitas",
    "storage_bucket": "kotlinentitas.appspot.com"
  },
  "client": [
    {
      "client_info": {
        "mobilesdk_app_id": "1:346152528458:android:02befa1ead2792e0a0d4b3",
        "android_client_info": {
          "package_name": "com.example.kotlindemo"
        }
      },
      "oauth_client": [
        {
          "client_id": "346152528458-284b5asvogh04j49rlp7r9ihq8jms8q6.apps.googleusercontent.com",
          "client_type": 1,
          "android_info": {
            "package_name": "com.example.kotlindemo",
            "certificate_hash": "a308e6c785cdb3fe2686819afacf620e9576d273"
          }
        },
        {
          "client_id": "346152528458-dfrrcbdj95plf9vmvkugabgl3tvltmv1.apps.googleusercontent.com",
          "client_type": 3
        }
      ],
      "api_key": [
        {
          "current_key": "AIzaSyB5K1aEJIRSPkeUmGP5HZ10EgnEw-sPC6A"
        }
      ],
      "services": {
        "appinvite_service": {
          "other_platform_oauth_client": [
            {
              "client_id": "346152528458-dfrrcbdj95plf9vmvkugabgl3tvltmv1.apps.googleusercontent.com",
              "client_type": 3
            }
          ]
        }
      }
    }
  ],
  "configuration_version": "1"
}